Lab5/simulation/qsim/Lab_5_State_Machine.msim.vcd
$comment
	File created using the following command:
		vcd file Lab_5_State_Machine.msim.vcd -direction
$end
$date
	Tue Feb 18 19:01:41 2025
$end
$version
	ModelSim Version 2020.1
$end
$timescale
	1ps
$end

$scope module lab_5_state_machine_vhd_vec_tst $end
$var wire 1 ! b_en $end
$var wire 1 " clk $end
$var wire 1 # cool $end
$var wire 1 $ g_en $end
$var wire 1 % r_en $end
$var wire 1 & resetn $end
$var wire 1 ' xmas $end

$scope module i1 $end
$var wire 1 ( gnd $end
$var wire 1 ) vcc $end
$var wire 1 * unknown $end
$var wire 1 + devoe $end
$var wire 1 , devclrn $end
$var wire 1 - devpor $end
$var wire 1 . ww_devoe $end
$var wire 1 / ww_devclrn $end
$var wire 1 0 ww_devpor $end
$var wire 1 1 ww_xmas $end
$var wire 1 2 ww_cool $end
$var wire 1 3 ww_clk $end
$var wire 1 4 ww_resetn $end
$var wire 1 5 ww_r_en $end
$var wire 1 6 ww_g_en $end
$var wire 1 7 ww_b_en $end
$var wire 1 8 \r_en~output_o\ $end
$var wire 1 9 \g_en~output_o\ $end
$var wire 1 : \b_en~output_o\ $end
$var wire 1 ; \clk~input_o\ $end
$var wire 1 < \state.s1~0_combout\ $end
$var wire 1 = \resetn~input_o\ $end
$var wire 1 > \state.s1~q\ $end
$var wire 1 ? \cool~input_o\ $end
$var wire 1 @ \xmas~input_o\ $end
$var wire 1 A \Selector1~0_combout\ $end
$var wire 1 B \state.s2~q\ $end
$var wire 1 C \Selector0~0_combout\ $end
$var wire 1 D \state.s0~q\ $end
$var wire 1 E \ALT_INV_state.s0~q\ $end
$var wire 1 F \ALT_INV_state.s1~q\ $end
$var wire 1 G \ALT_INV_state.s2~q\ $end
$var wire 1 H \ALT_INV_cool~input_o\ $end
$var wire 1 I \ALT_INV_xmas~input_o\ $end
$upscope $end
$upscope $end
$enddefinitions $end
#0
$dumpvars
0!
0"
0#
0$
1%
0&
0'
0(
1)
x*
1+
1,
1-
1.
1/
10
01
02
03
04
15
06
07
18
09
0:
0;
1<
0=
0>
0?
0@
0A
0B
1C
0D
1E
1F
1G
1H
1I
$end
#10000
1&
14
1=
#20000
1'
11
1@
0I
#25000
1"
13
1;
1>
1D
0E
0F
0C
0<
19
08
16
05
1$
0%
#50000
0"
03
0;
#75000
1"
13
1;
0>
0D
1E
1F
1C
1<
09
18
06
15
0$
1%
#100000
0"
03
0;
#125000
1"
13
1;
1>
1D
0E
0F
0C
0<
19
08
16
05
1$
0%
#150000
0"
03
0;
#175000
1"
13
1;
0>
0D
1E
1F
1C
1<
09
18
06
15
0$
1%
#200000
0"
03
0;
#225000
1"
13
1;
1>
1D
0E
0F
0C
0<
19
08
16
05
1$
0%
#240000
1#
12
1?
0H
1A
1C
#250000
0"
03
0;
#260000
0'
01
0@
1I
#275000
1"
13
1;
0>
1B
0G
1F
1:
09
17
06
1!
0$
#300000
0"
03
0;
#325000
1"
13
1;
#350000
0"
03
0;
#375000
1"
13
1;
#400000
0"
03
0;
#425000
1"
13
1;
#450000
0"
1'
03
11
1@
0;
0I
#475000
1"
13
1;
#500000
0"
03
0;
#525000
1"
13
1;
#550000
0"
03
0;
#575000
1"
13
1;
#590000
0#
02
0?
1H
0A
0C
#600000
0"
03
0;
#625000
1"
13
1;
0B
0D
1E
1G
1C
1<
0:
18
07
15
0!
1%
#640000
0'
0&
01
04
0=
0@
1I
#650000
0"
03
0;
#660000
1&
14
1=
#675000
1"
13
1;
1>
1D
0E
0F
1A
0<
19
08
16
05
1$
0%
#700000
0"
03
0;
#725000
1"
13
1;
0>
1B
0G
1F
0A
0C
1:
09
17
06
1!
0$
#750000
0"
03
0;
#775000
1"
13
1;
0B
0D
1E
1G
1C
1<
0:
18
07
15
0!
1%
#790000
0&
04
0=
#800000
0"
03
0;
#810000
1&
14
1=
#825000
1"
13
1;
1>
1D
0E
0F
1A
0<
19
08
16
05
1$
0%
#850000
0"
03
0;
#875000
1"
13
1;
0>
1B
0G
1F
0A
0C
1:
09
17
06
1!
0$
#900000
0"
03
0;
#910000
0&
04
0=
0B
0D
1E
1G
1C
1<
0:
18
07
15
0!
1%
#925000
1"
13
1;
#950000
0"
03
0;
#975000
1"
13
1;
