Lab1/ActivitySuggestions/simulation/qsim/ActivitySuggestions.msim.vcd
$comment
	File created using the following command:
		vcd file ActivitySuggestions.msim.vcd -direction
$end
$date
	Tue Jan 14 19:29:01 2025
$end
$version
	ModelSim Version 2020.1
$end
$timescale
	1ps
$end

$scope module activitysuggestions_vhd_vec_tst $end
$var wire 1 ! BW_out $end
$var wire 1 " C_R $end
$var wire 1 # C_T $end
$var wire 1 $ C_W $end
$var wire 1 % CY_out $end
$var wire 1 & HG_out $end
$var wire 1 ' M_R $end
$var wire 1 ( M_T $end
$var wire 1 ) M_W $end
$var wire 1 * PS_out $end
$var wire 1 + VB_out $end

$scope module i1 $end
$var wire 1 , gnd $end
$var wire 1 - vcc $end
$var wire 1 . unknown $end
$var wire 1 / devoe $end
$var wire 1 0 devclrn $end
$var wire 1 1 devpor $end
$var wire 1 2 ww_devoe $end
$var wire 1 3 ww_devclrn $end
$var wire 1 4 ww_devpor $end
$var wire 1 5 ww_HG_out $end
$var wire 1 6 ww_M_W $end
$var wire 1 7 ww_M_R $end
$var wire 1 8 ww_PS_out $end
$var wire 1 9 ww_C_R $end
$var wire 1 : ww_C_T $end
$var wire 1 ; ww_VB_out $end
$var wire 1 < ww_C_W $end
$var wire 1 = ww_CY_out $end
$var wire 1 > ww_BW_out $end
$var wire 1 ? ww_M_T $end
$var wire 1 @ \M_T~input_o\ $end
$var wire 1 A \~QUARTUS_CREATED_GND~I_combout\ $end
$var wire 1 B \M_W~input_o\ $end
$var wire 1 C \M_R~input_o\ $end
$var wire 1 D \inst1~combout\ $end
$var wire 1 E \C_R~input_o\ $end
$var wire 1 F \C_T~input_o\ $end
$var wire 1 G \inst4~combout\ $end
$var wire 1 H \C_W~input_o\ $end
$var wire 1 I \inst5~combout\ $end
$var wire 1 J \inst6~combout\ $end
$var wire 1 K \inst14~combout\ $end
$var wire 1 L \ALT_INV_inst6~combout\ $end
$var wire 1 M \ALT_INV_M_W~input_o\ $end
$var wire 1 N \ALT_INV_M_R~input_o\ $end
$var wire 1 O \ALT_INV_C_T~input_o\ $end
$var wire 1 P \ALT_INV_C_R~input_o\ $end
$var wire 1 Q \ALT_INV_C_W~input_o\ $end
$upscope $end
$upscope $end
$enddefinitions $end
#0
$dumpvars
0!
0"
0#
0$
1%
0&
0'
0(
0)
0*
0+
0,
1-
x.
1/
10
11
12
13
14
05
06
07
08
09
0:
0;
0<
1=
0>
0?
0@
xA
0B
0C
0D
0E
0F
0G
0H
0I
0J
0K
1L
1M
1N
1O
1P
1Q
$end
#50000
1)
16
1B
0M
1D
15
1&
#100000
0)
1(
06
1?
1@
0B
1M
0D
05
0&
#150000
1)
16
1B
0M
1D
15
1&
#200000
0)
0(
1'
06
0?
17
1C
0@
0B
1M
0N
0D
05
0&
#250000
1)
16
1B
0M
#300000
0)
1(
06
1?
1@
0B
1M
#350000
1)
16
1B
0M
#400000
0)
0(
0'
1$
06
0?
07
1<
1H
0C
0@
0B
1M
1N
0Q
#450000
1)
16
1B
0M
1D
15
1&
#500000
0)
1(
06
1?
1@
0B
1M
0D
05
0&
#550000
1)
16
1B
0M
1D
15
1&
#600000
0)
0(
1'
06
0?
17
1C
0@
0B
1M
0N
0D
05
0&
#650000
1)
16
1B
0M
#700000
0)
1(
06
1?
1@
0B
1M
#750000
1)
16
1B
0M
#800000
0)
0(
0'
0$
1#
06
0?
07
0<
1:
1F
0H
0C
0@
0B
1M
1N
1Q
0O
1I
1G
18
1;
1*
1+
#850000
1)
16
1B
0M
1D
0G
08
15
0*
1&
#900000
0)
1(
06
1?
1@
0B
1M
0D
1G
18
05
1*
0&
#950000
1)
16
1B
0M
1D
0G
08
15
0*
1&
#1000000
0)
0(
1'
06
0?
17
1C
0@
0B
1M
0N
0D
1G
18
05
1*
0&
#1050000
1)
16
1B
0M
#1100000
0)
1(
06
1?
1@
0B
1M
#1150000
1)
16
1B
0M
#1200000
0)
0(
0'
1$
06
0?
07
1<
1H
0C
0@
0B
1M
1N
0Q
0I
0;
0+
#1250000
1)
16
1B
0M
1D
0G
08
15
0*
1&
#1300000
0)
1(
06
1?
1@
0B
1M
0D
1G
18
05
1*
0&
#1350000
1)
16
1B
0M
1D
0G
08
15
0*
1&
#1400000
0)
0(
1'
06
0?
17
1C
0@
0B
1M
0N
0D
1G
18
05
1*
0&
#1450000
1)
16
1B
0M
#1500000
0)
1(
06
1?
1@
0B
1M
#1550000
1)
16
1B
0M
#1600000
0)
0(
0'
0$
0#
1"
06
0?
07
0<
0:
19
1E
0F
0H
0C
0@
0B
1M
1N
1Q
1O
0P
1K
0G
08
1>
0*
1!
#1650000
1)
16
1B
0M
1D
15
1&
#1700000
0)
1(
06
1?
1@
0B
1M
0D
05
0&
#1750000
1)
16
1B
0M
1D
15
1&
#1800000
0)
0(
1'
06
0?
17
1C
0@
0B
1M
0N
1J
0K
0D
0L
05
0>
0=
0&
0!
0%
#1850000
1)
16
1B
0M
#1900000
0)
1(
06
1?
1@
0B
1M
#1950000
1)
16
1B
0M
#2000000
0)
0(
0'
1$
06
0?
07
1<
1H
0C
0@
0B
1M
1N
0Q
0J
1K
1L
1>
1=
1!
1%
#2050000
1)
16
1B
0M
1D
15
1&
#2100000
0)
1(
06
1?
1@
0B
1M
0D
05
0&
#2150000
1)
16
1B
0M
1D
15
1&
#2200000
0)
0(
1'
06
0?
17
1C
0@
0B
1M
0N
1J
0K
0D
0L
05
0>
0=
0&
0!
0%
#2250000
1)
16
1B
0M
#2300000
0)
1(
06
1?
1@
0B
1M
#2350000
1)
16
1B
0M
#2400000
0)
0(
0'
0$
1#
06
0?
07
0<
1:
1F
0H
0C
0@
0B
1M
1N
1Q
0O
0J
1K
1L
1>
1=
1!
1%
#2450000
1)
16
1B
0M
1D
15
1&
#2500000
0)
1(
06
1?
1@
0B
1M
0D
05
0&
#2550000
1)
16
1B
0M
1D
15
1&
#2600000
0)
0(
1'
06
0?
17
1C
0@
0B
1M
0N
1J
0K
0D
0L
05
0>
0=
0&
0!
0%
#2650000
1)
16
1B
0M
#2700000
0)
1(
06
1?
1@
0B
1M
#2750000
1)
16
1B
0M
#2800000
0)
0(
0'
1$
06
0?
07
1<
1H
0C
0@
0B
1M
1N
0Q
0J
1K
1L
1>
1=
1!
1%
#2850000
1)
16
1B
0M
1D
15
1&
#2900000
0)
1(
06
1?
1@
0B
1M
0D
05
0&
#2950000
1)
16
1B
0M
1D
15
1&
#3000000
0)
0(
1'
06
0?
17
1C
0@
0B
1M
0N
1J
0K
0D
0L
05
0>
0=
0&
0!
0%
#3050000
1)
16
1B
0M
#3100000
0)
1(
06
1?
1@
0B
1M
#3150000
1)
16
1B
0M
