Lab4/simulation/qsim/Lab4Circuit.msim.vcd
$comment
	File created using the following command:
		vcd file Lab4Circuit.msim.vcd -direction
$end
$date
	Fri Feb 14 15:07:36 2025
$end
$version
	ModelSim Version 2020.1
$end
$timescale
	1ps
$end

$scope module lab4circuit_vhd_vec_tst $end
$var wire 1 ! clock $end
$var wire 1 " cool $end
$var wire 1 # Q [1] $end
$var wire 1 $ Q [0] $end
$var wire 1 % resetn $end
$var wire 1 & xmas $end

$scope module i1 $end
$var wire 1 ' gnd $end
$var wire 1 ( vcc $end
$var wire 1 ) unknown $end
$var wire 1 * devoe $end
$var wire 1 + devclrn $end
$var wire 1 , devpor $end
$var wire 1 - ww_devoe $end
$var wire 1 . ww_devclrn $end
$var wire 1 / ww_devpor $end
$var wire 1 0 ww_Q [1] $end
$var wire 1 1 ww_Q [0] $end
$var wire 1 2 ww_clock $end
$var wire 1 3 ww_cool $end
$var wire 1 4 ww_xmas $end
$var wire 1 5 ww_resetn $end
$var wire 1 6 \Q[1]~output_o\ $end
$var wire 1 7 \Q[0]~output_o\ $end
$var wire 1 8 \clock~input_o\ $end
$var wire 1 9 \inst10~combout\ $end
$var wire 1 : \resetn~input_o\ $end
$var wire 1 ; \inst14|10~q\ $end
$var wire 1 < \cool~input_o\ $end
$var wire 1 = \xmas~input_o\ $end
$var wire 1 > \inst5~0_combout\ $end
$var wire 1 ? \inst14|9~q\ $end
$var wire 1 @ \inst14|ALT_INV_9~q\ $end
$var wire 1 A \inst14|ALT_INV_10~q\ $end
$var wire 1 B \ALT_INV_cool~input_o\ $end
$var wire 1 C \ALT_INV_xmas~input_o\ $end
$upscope $end
$upscope $end
$enddefinitions $end
#0
$dumpvars
0!
0"
0%
0&
0'
1(
x)
1*
1+
1,
1-
1.
1/
02
03
04
05
06
07
08
19
0:
0;
0<
0=
0>
0?
1@
1A
1B
1C
00
01
0#
0$
$end
#25000
1!
12
18
#34500
1&
14
1=
0C
#40000
1%
15
1:
#50000
0!
02
08
#69000
0&
04
0=
1C
#75000
1!
12
18
1;
0A
09
1>
17
11
1$
#100000
0!
02
08
#125000
1!
12
18
0;
1?
0@
1A
0>
16
07
10
01
0$
1#
#150000
0!
02
08
#175000
1!
12
18
0?
1@
19
06
00
0#
#180000
1&
14
1=
0C
#200000
0!
02
08
#225000
1!
12
18
1;
0A
09
17
11
1$
#250000
0!
02
08
#260000
1"
13
1<
0B
1>
#275000
1!
12
18
0;
1?
0@
1A
16
07
10
01
0$
1#
#300000
0!
02
08
#325000
1!
12
18
#350000
0!
02
08
#375000
1!
12
18
#400000
0!
0"
02
03
0<
08
1B
0>
#414000
0&
04
0=
1C
#425000
1!
12
18
0?
1@
19
06
00
0#
#440000
1"
13
1<
0B
#450000
0!
02
08
#460000
0%
05
0:
#475000
1!
12
18
#500000
0!
1%
02
15
1:
08
#525000
1!
12
18
1;
0A
09
1>
17
11
1$
#550000
0!
02
08
#575000
1!
12
18
0;
1?
0@
1A
16
07
10
01
0$
1#
#580000
0"
03
0<
1B
0>
#600000
0!
02
08
#620000
1&
14
1=
0C
#625000
1!
12
18
0?
1@
19
06
00
0#
#650000
0!
02
08
#675000
1!
12
18
1;
0A
09
17
11
1$
#700000
0!
02
08
#725000
1!
12
18
0;
1A
19
07
01
0$
#750000
0!
02
08
#759000
0&
04
0=
1C
#775000
1!
12
18
1;
0A
09
1>
17
11
1$
#780000
1"
13
1<
0B
#800000
0!
02
08
#820000
0"
03
0<
1B
#825000
1!
12
18
0;
1?
0@
1A
0>
16
07
10
01
0$
1#
#850000
0!
02
08
#860000
1"
13
1<
0B
1>
#875000
1!
12
18
#900000
0!
02
08
#925000
1!
12
18
#931500
1&
14
1=
0C
#942000
0"
03
0<
1B
0>
#950000
0!
02
08
#966000
0&
04
0=
1C
#975000
1!
12
18
0?
1@
19
06
00
0#
#983000
1"
13
1<
0B
